{
	"__comment": "Designed by Jehkoba with Cubik Studio - https://cubik.studio",
	"parent": "block/cube_all",
	"textures": {
		"particle": "block/coal_block",
		"Crate": "block/spruce_planks",
		"Woad": "block/coal_block",
		"Posts": "block/spruce_fence",
		"texture": "item/coal"
	},
	"elements": [ 	 
		{
			"__comment": "Post1",
			"from": [ 0, 1, 0 ],
			"to": [ 2, 16, 2 ],
			"faces": {
				"up": { "uv": [ 4, 2, 6, 4 ], "texture": "#Posts" },
				"north": { "uv": [ 9, 0, 7, 15 ], "texture": "#Posts" },
				"south": { "uv": [ 9, 0, 7, 15 ], "texture": "#Posts" },
				"west": { "uv": [ 7, 0, 9, 15 ], "texture": "#Posts" },
				"east": { "uv": [ 7, 0, 9, 15 ], "texture": "#Posts" }
			}
		},
		{
			"__comment": "Base",
			"from": [ 0, 0, 0 ],
			"to": [ 16, 1, 16 ],
			"faces": {
				"down": { "uv": [ 0, 0, 16, 16 ], "texture": "#Crate" },
				"up": { "uv": [ 0, 0, 16, 16 ], "texture": "#Crate" },
				"north": { "uv": [ 0, 15, 16, 16 ], "texture": "#Crate" },
				"south": { "uv": [ 0, 15, 16, 16 ], "texture": "#Crate" },
				"west": { "uv": [ 0, 15, 16, 16 ], "texture": "#Crate" },
				"east": { "uv": [ 0, 15, 16, 16 ], "texture": "#Crate" }
			}
		},
		{
			"__comment": "Post2",
			"from": [ 14, 1, 14 ],
			"to": [ 16, 16, 16 ],
			"faces": {
				"up": { "uv": [ 4, 2, 6, 4 ], "texture": "#Posts", "rotation": 180 },
				"north": { "uv": [ 9, 0, 7, 15 ], "texture": "#Posts" },
				"south": { "uv": [ 9, 0, 7, 15 ], "texture": "#Posts" },
				"west": { "uv": [ 7, 0, 9, 15 ], "texture": "#Posts" },
				"east": { "uv": [ 7, 0, 9, 15 ], "texture": "#Posts" }
			}
		},
		{
			"__comment": "Post3",
			"from": [ 0, 1, 14 ],
			"to": [ 2, 16, 16 ],
			"faces": {
				"up": { "uv": [ 4, 2, 6, 4 ], "texture": "#Posts", "rotation": 270 },
				"north": { "uv": [ 9, 0, 7, 15 ], "texture": "#Posts" },
				"south": { "uv": [ 7, 0, 9, 15 ], "texture": "#Posts" },
				"west": { "uv": [ 9, 0, 7, 15 ], "texture": "#Posts" },
				"east": { "uv": [ 7, 0, 9, 15 ], "texture": "#Posts" }
			}
		},
		{
			"__comment": "Post4",
			"from": [ 14, 1, 0 ],
			"to": [ 16, 16, 2 ],
			"faces": {
				"up": { "uv": [ 4, 2, 6, 4 ], "texture": "#Posts", "rotation": 90 },
				"north": { "uv": [ 7, 0, 9, 15 ], "texture": "#Posts" },
				"south": { "uv": [ 7, 0, 9, 15 ], "texture": "#Posts" },
				"west": { "uv": [ 9, 0, 7, 15 ], "texture": "#Posts" },
				"east": { "uv": [ 9, 0, 7, 15 ], "texture": "#Posts" }
			}
		},
		{
			"__comment": "N1",
			"from": [ 2, 2, 0 ],
			"to": [ 14, 6, 1 ],
			"faces": {
				"down": { "uv": [ 2, 3, 14, 4 ], "texture": "#Crate" },
				"up": { "uv": [ 2, 2, 14, 3 ], "texture": "#Crate" },
				"north": { "uv": [ 2, 15, 14, 11 ], "texture": "#Crate" }
			}
		},
		{
			"__comment": "N2",
			"from": [ 2, 7, 0 ],
			"to": [ 14, 11, 1 ],
			"faces": {
				"down": { "uv": [ 2, 3, 14, 4 ], "texture": "#Crate" },
				"up": { "uv": [ 2, 2, 14, 3 ], "texture": "#Crate" },
				"north": { "uv": [ 2, 15, 14, 11 ], "texture": "#Crate" }
			}
		},
		{
			"__comment": "N3",
			"from": [ 2, 12, 0 ],
			"to": [ 14, 16, 1 ],
			"faces": {
				"down": { "uv": [ 2, 3, 14, 4 ], "texture": "#Crate" },
				"up": { "uv": [ 2, 2, 14, 3 ], "texture": "#Crate" },
				"north": { "uv": [ 2, 15, 14, 11 ], "texture": "#Crate" },
				"south": { "uv": [ 2, 15, 14, 11 ], "texture": "#Crate" }
			}
		},
		{
			"__comment": "S1",
			"from": [ 2, 2, 15 ],
			"to": [ 14, 6, 16 ],
			"faces": {
				"down": { "uv": [ 2, 3, 14, 4 ], "texture": "#Crate" },
				"up": { "uv": [ 2, 2, 14, 3 ], "texture": "#Crate" },
				"south": { "uv": [ 2, 15, 14, 11 ], "texture": "#Crate" }
			}
		},
		{
			"__comment": "S2",
			"from": [ 2, 7, 15 ],
			"to": [ 14, 11, 16 ],
			"faces": {
				"down": { "uv": [ 2, 3, 14, 4 ], "texture": "#Crate" },
				"up": { "uv": [ 2, 2, 14, 3 ], "texture": "#Crate" },
				"south": { "uv": [ 2, 15, 14, 11 ], "texture": "#Crate" }
			}
		},
		{
			"__comment": "S3",
			"from": [ 2, 12, 15 ],
			"to": [ 14, 16, 16 ],
			"faces": {
				"down": { "uv": [ 2, 3, 14, 4 ], "texture": "#Crate" },
				"up": { "uv": [ 2, 2, 14, 3 ], "texture": "#Crate" },
				"north": { "uv": [ 2, 15, 14, 11 ], "texture": "#Crate" },
				"south": { "uv": [ 2, 15, 14, 11 ], "texture": "#Crate" }
			}
		},
		{
			"__comment": "W3",
			"from": [ 0, 2, 2 ],
			"to": [ 1, 6, 14 ],
			"faces": {
				"down": { "uv": [ 2, 15, 14, 16 ], "texture": "#Crate", "rotation": 270 },
				"up": { "uv": [ 2, 14, 14, 15 ], "texture": "#Crate", "rotation": 270 },
				"west": { "uv": [ 2, 15, 14, 11 ], "texture": "#Crate" }
			}
		},
		{
			"__comment": "W2",
			"from": [ 0, 7, 2 ],
			"to": [ 1, 11, 14 ],
			"faces": {
				"down": { "uv": [ 2, 15, 14, 16 ], "texture": "#Crate", "rotation": 270 },
				"up": { "uv": [ 2, 14, 14, 15 ], "texture": "#Crate", "rotation": 270 },
				"west": { "uv": [ 2, 15, 14, 11 ], "texture": "#Crate" }
			}
		},
		{
			"__comment": "W1",
			"from": [ 0, 12, 2 ],
			"to": [ 1, 16, 14 ],
			"faces": {
				"down": { "uv": [ 2, 15, 14, 16 ], "texture": "#Crate", "rotation": 270 },
				"up": { "uv": [ 2, 14, 14, 15 ], "texture": "#Crate", "rotation": 270 },
				"west": { "uv": [ 2, 15, 14, 11 ], "texture": "#Crate" },
				"east": { "uv": [ 2, 15, 14, 11 ], "texture": "#Crate" }
			}
		},
		{
			"__comment": "E3",
			"from": [ 15, 2, 2 ],
			"to": [ 16, 6, 14 ],
			"faces": {
				"down": { "uv": [ 2, 15, 14, 16 ], "texture": "#Crate", "rotation": 270 },
				"up": { "uv": [ 2, 14, 14, 15 ], "texture": "#Crate", "rotation": 270 },
				"east": { "uv": [ 2, 15, 14, 11 ], "texture": "#Crate" }
			}
		},
		{
			"__comment": "E2",
			"from": [ 15, 7, 2 ],
			"to": [ 16, 11, 14 ],
			"faces": {
				"down": { "uv": [ 2, 15, 14, 16 ], "texture": "#Crate", "rotation": 270 },
				"up": { "uv": [ 2, 14, 14, 15 ], "texture": "#Crate", "rotation": 270 },
				"east": { "uv": [ 2, 15, 14, 11 ], "texture": "#Crate" }
			}
		},
		{
			"__comment": "E1",
			"from": [ 15, 12, 2 ],
			"to": [ 16, 16, 14 ],
			"faces": {
				"down": { "uv": [ 2, 15, 14, 16 ], "texture": "#Crate", "rotation": 270 },
				"up": { "uv": [ 2, 14, 14, 15 ], "texture": "#Crate", "rotation": 270 },
				"west": { "uv": [ 2, 15, 14, 11 ], "texture": "#Crate" },
				"east": { "uv": [ 2, 15, 14, 11 ], "texture": "#Crate" }
			}
		},
		{
			"__comment": "Box23",
			"from": [ 1, 1, 1 ],
			"to": [ 15, 15, 15 ],
			"faces": {
				"up": { "uv": [ 1, 1, 14, 14 ], "texture": "#Woad" },
				"north": { "uv": [ 1, 1, 15, 15 ], "texture": "#Woad" },
				"south": { "uv": [ 1, 1, 15, 15 ], "texture": "#Woad" },
				"west": { "uv": [ 1, 1, 15, 15 ], "texture": "#Woad" },
				"east": { "uv": [ 1, 1, 15, 15 ], "texture": "#Woad" }
			}
		}
	]
}