{
"__comment": "Designed by Jehkoba with BDcraft Cubik PRO 0.87 Beta - http://bdcraft.net",
"parent": "block/block", 
"textures": {
    "particle": "block/rail",
    "texture": "block/rail",
    "rail_golden_powered": "block/powered_rail_on"
},
"elements": [ 
{
    "from": [ 2, 1, 0 ],
    "to": [ 4, 2, 16 ],
    "faces": {
        "down":  { "uv": [ 14, 16, 12, 0 ], "texture": "#texture" },
        "up":    { "uv": [ 2, 0, 4, 16 ], "texture": "#texture" },
        "north": { "uv": [ 12, 14, 14, 15 ], "texture": "#texture", "cullface": "north" },
        "south": { "uv": [ 2, 14, 4, 15 ], "texture": "#texture", "cullface": "south" },
        "west":  { "uv": [ 2, 1, 3, 2 ], "texture": "#texture" },
        "east":  { "uv": [ 3, 1, 4, 2 ], "texture": "#texture" }
    }
},
{
    "from": [ 12, 1, 0 ],
    "to": [ 14, 2, 16 ],
    "faces": {
        "down":  { "uv": [ 4, 16, 2, 0 ], "texture": "#texture" },
        "up":    { "uv": [ 12, 0, 14, 16 ], "texture": "#texture" },
        "north": { "uv": [ 2, 14, 4, 15 ], "texture": "#texture", "cullface": "north" },
        "south": { "uv": [ 12, 14, 14, 15 ], "texture": "#texture", "cullface": "south" },
        "west":  { "uv": [ 3, 14, 4, 15 ], "texture": "#texture" },
        "east":  { "uv": [ 2, 14, 3, 15 ], "texture": "#texture" }
    }
},
{
    "from": [ 1, 0, 11.75 ],
    "to": [ 15, 1, 14.75 ],
    "faces": {
        "down":  { "uv": [ 12, 15, 4, 12 ], "texture": "#texture", "cullface": "down" },
        "up":    { "uv": [ 4, 12, 12, 15 ], "texture": "#texture" },
        "north": { "uv": [ 4, 13, 12, 14 ], "texture": "#texture" },
        "south": { "uv": [ 4, 13, 12, 14 ], "texture": "#texture" },
        "west":  { "uv": [ 8, 13, 11, 14 ], "texture": "#texture" },
        "east":  { "uv": [ 9, 13, 12, 14 ], "texture": "#texture" }
    }
},
{
    "from": [ 1, 0, 6.5 ],
    "to": [ 15, 1, 9.5 ],
    "faces": {
        "down":  { "uv": [ 12, 10, 4, 7 ], "texture": "#texture", "cullface": "down" },
        "up":    { "uv": [ 4, 7, 12, 10 ], "texture": "#texture" },
        "north": { "uv": [ 4, 8, 12, 9 ], "texture": "#texture" },
        "south": { "uv": [ 4, 8, 12, 9 ], "texture": "#texture" },
        "west":  { "uv": [ 8, 8, 11, 9 ], "texture": "#texture" },
        "east":  { "uv": [ 9, 3, 12, 4 ], "texture": "#texture" }
    }
},
{
    "from": [ 1, 0, 1.25 ],
    "to": [ 15, 1, 4.25 ],
    "faces": {
        "down":  { "uv": [ 12, 5, 4, 2 ], "texture": "#texture", "cullface": "down" },
        "up":    { "uv": [ 4, 2, 12, 5 ], "texture": "#texture" },
        "north": { "uv": [ 4, 3, 12, 4 ], "texture": "#texture" },
        "south": { "uv": [ 4, 3, 12, 4 ], "texture": "#texture" },
        "west":  { "uv": [ 9, 3, 12, 4 ], "texture": "#texture" },
        "east":  { "uv": [ 8, 3, 11, 4 ], "texture": "#texture" }
    }
},
{
    "from": [ 4, 1, 1.25 ],
    "to": [ 5, 2, 14.75 ],
    "faces": {
        "down":  { "uv": [ 5, 15, 4, 2 ], "texture": "#rail_golden_powered" },
        "up":    { "uv": [ 4, 2, 5, 15 ], "texture": "#rail_golden_powered" },
        "north": { "uv": [ 4, 2, 5, 3 ], "texture": "#rail_golden_powered" },
        "south": { "uv": [ 4, 14, 5, 15 ], "texture": "#rail_golden_powered" },
        "west":  { "uv": [ 4, 10, 5, 11 ], "texture": "#rail_golden_powered" },
        "east":  { "uv": [ 4, 10, 5, 11 ], "texture": "#rail_golden_powered" }
    }
},
{
    "from": [ 11, 1, 1.25 ],
    "to": [ 12, 2, 14.75 ],
    "faces": {
        "down":  { "uv": [ 5, 15, 4, 2 ], "texture": "#rail_golden_powered" },
        "up":    { "uv": [ 4, 2, 5, 15 ], "texture": "#rail_golden_powered" },
        "north": { "uv": [ 4, 2, 5, 3 ], "texture": "#rail_golden_powered" },
        "south": { "uv": [ 4, 14, 5, 15 ], "texture": "#rail_golden_powered" },
        "west":  { "uv": [ 4, 10, 5, 11 ], "texture": "#rail_golden_powered" },
        "east":  { "uv": [ 4, 10, 5, 11 ], "texture": "#rail_golden_powered" }
    }
},
{
    "from": [ 5, 1, 1.25 ],
    "to": [ 11, 2, 4.25 ],
    "faces": {
        "down":  { "uv": [ 5, 5, 11, 2 ], "texture": "#rail_golden_powered" },
        "up":    { "uv": [ 5, 2, 11, 5 ], "texture": "#rail_golden_powered" },
        "north": { "uv": [ 5, 2, 11, 3 ], "texture": "#rail_golden_powered" },
        "south": { "uv": [ 5, 4, 11, 5 ], "texture": "#rail_golden_powered" },
        "west":  { "uv": [ 5, 2, 6, 5 ], "texture": "#rail_golden_powered" },
        "east":  { "uv": [ 10, 2, 11, 5 ], "texture": "#rail_golden_powered" }
    }
},
{
    "from": [ 5, 1, 6.5 ],
    "to": [ 11, 2, 9.5 ],
    "faces": {
        "down":  { "uv": [ 5, 5, 11, 2 ], "texture": "#rail_golden_powered" },
        "up":    { "uv": [ 5, 2, 11, 5 ], "texture": "#rail_golden_powered" },
        "north": { "uv": [ 5, 2, 11, 3 ], "texture": "#rail_golden_powered" },
        "south": { "uv": [ 5, 4, 11, 5 ], "texture": "#rail_golden_powered" },
        "west":  { "uv": [ 5, 2, 6, 5 ], "texture": "#rail_golden_powered" },
        "east":  { "uv": [ 10, 2, 11, 5 ], "texture": "#rail_golden_powered" }
    }
},
{
    "from": [ 5, 1, 11.75 ],
    "to": [ 11, 2, 14.75 ],
    "faces": {
        "down":  { "uv": [ 5, 5, 11, 2 ], "texture": "#rail_golden_powered" },
        "up":    { "uv": [ 5, 2, 11, 5 ], "texture": "#rail_golden_powered" },
        "north": { "uv": [ 5, 2, 11, 3 ], "texture": "#rail_golden_powered" },
        "south": { "uv": [ 5, 4, 11, 5 ], "texture": "#rail_golden_powered" },
        "west":  { "uv": [ 5, 2, 6, 5 ], "texture": "#rail_golden_powered" },
        "east":  { "uv": [ 10, 2, 11, 5 ], "texture": "#rail_golden_powered" }
    }
},
{
    "from": [ 7, 1, 4.25 ],
    "to": [ 9, 2, 6.5 ],
    "faces": {
        "down":  { "uv": [ 9, 7, 7, 5 ], "texture": "#rail_golden_powered" },
        "up":    { "uv": [ 7, 5, 9, 7 ], "texture": "#rail_golden_powered" },
        "north": { "uv": [ 7, 5, 9, 6 ], "texture": "#rail_golden_powered" },
        "south": { "uv": [ 7, 6, 9, 7 ], "texture": "#rail_golden_powered" },
        "west":  { "uv": [ 7, 6, 8, 7 ], "texture": "#rail_golden_powered" },
        "east":  { "uv": [ 7, 6, 8, 7 ], "texture": "#rail_golden_powered" }
    }
},
{
    "from": [ 7, 1, 9.5 ],
    "to": [ 9, 2, 11.75 ],
    "faces": {
        "down":  { "uv": [ 9, 7, 7, 5 ], "texture": "#rail_golden_powered" },
        "up":    { "uv": [ 7, 5, 9, 7 ], "texture": "#rail_golden_powered" },
        "north": { "uv": [ 7, 5, 9, 6 ], "texture": "#rail_golden_powered" },
        "south": { "uv": [ 7, 6, 9, 7 ], "texture": "#rail_golden_powered" },
        "west":  { "uv": [ 7, 6, 8, 7 ], "texture": "#rail_golden_powered" },
        "east":  { "uv": [ 7, 6, 8, 7 ], "texture": "#rail_golden_powered" }
    }
}
]
}