{
    "variants": {
        "half=lower":[
            { "model": "block/large_fern_bottom" },
            { "model": "block/large_fern_bottom_1" },
            { "model": "block/large_fern_bottom_2" }
            ],
        "half=upper":[
            { "model": "block/large_fern_top" },
            { "model": "block/large_fern_top_1" },
            { "model": "block/large_fern_top_2" }
            ]
    }
}